<?xml version="1.0" encoding="utf-8"?>
<!DOCTYPE svg PUBLIC "-//W3C//DTD SVG 1.1//EN" "http://www.w3.org/Graphics/SVG/1.1/DTD/svg11.dtd">
<svg version="1.1" id="Layer_1" xmlns="http://www.w3.org/2000/svg" viewBox="0 0 512 512">
<style type="text/css">
<![CDATA[
	.st0{fill:#FFFFFF;}
]]>
</style>
<g>
	<g>
		<path class="st0" d="M256.6035156,74.3022461c-100.9589844,0-183.0952148,82.1352539-183.0952148,183.0961914
			c0,100.9599609,82.1362305,183.0957031,183.0961914,183.0957031c100.9580078,0,183.0947266-82.1357422,183.0947266-183.0957031
			C439.6992188,156.4375,357.5615234,74.3022461,256.6035156,74.3022461z M256.6035156,427.4052734
			c-93.7426758,0-170.0083008-76.2646484-170.0083008-170.0068359c0-93.7431641,76.265625-170.0087891,170.0083008-170.0087891
			c93.7421875,0,170.0078125,76.265625,170.0078125,170.0087891
			C426.6113281,351.140625,350.3457031,427.4052734,256.6035156,427.4052734z"/>
		<path class="st0" d="M256.6035156,376.0097656c-15.2495117,0-29.8994141-4.1083984-42.7543945-11.9404297
			c5.4711914-5.8730469,13.230957-9.3574219,21.4042969-9.3574219c6.34375,0,12.3740234,1.9960938,17.4399414,5.7695313
			c2.3203125,1.7294922,5.5009766,1.7294922,7.8203125,0c5.0654297-3.7744141,11.0917969-5.7695313,17.4316406-5.7695313
			c8.1679688,0,15.9296875,3.4833984,21.4072266,9.3583984C286.5,371.9013672,271.8525391,376.0097656,256.6035156,376.0097656z"/>
		<path class="st0" d="M310.0136719,356.3730469c-7.9658203-9.2275391-19.6914063-14.7490234-32.0693359-14.7490234
			c-7.5986328,0-14.890625,1.9804688-21.3417969,5.7685547c-6.4526367-3.7871094-13.7470703-5.7685547-21.3505859-5.7685547
			c-12.3818359,0-24.1083984,5.5224609-32.0625,14.7451172c-9.0283203-7.6582031-16.2216797-17.0605469-21.2177734-27.7011719
			h149.2617188C326.2382813,339.3095703,319.0439453,348.7119141,310.0136719,356.3730469z"/>
		<path class="st0" d="M336.0761719,315.5800781H177.1303711c-1.3969727-5.0537109-2.3120117-10.2294922-2.7241211-15.4785156
			h164.3945313C338.3876953,305.3505859,337.4746094,310.5263672,336.0761719,315.5800781z"/>
		<path class="st0" d="M218.921875,217.6015625l-38.8266602-27.3027344
			c-2.9555664-2.0791016-7.0371094-1.3691406-9.1166992,1.5888672c-2.078125,2.9560547-1.3666992,7.0380859,1.5888672,9.1171875
			l25.7392578,18.0986328l-54.015625,8.9189453c-3.5664063,0.5888672-5.9794922,3.956543-5.390625,7.5229492
			c0.5288086,3.2055664,3.3037109,5.4790039,6.4492188,5.4790039c0.3540039,0,0.7133789-0.0292969,1.0742188-0.0888672
			l69.8017578-11.5239258c2.6210938-0.4335938,4.7211914-2.4086914,5.3125-5
			C222.1293945,221.8217773,221.0966797,219.1298828,218.921875,217.6015625z"/>
		<path class="st0" d="M368.9160156,228.0224609l-54.015625-8.9174805l25.7392578-18.1000977
			c2.9560547-2.078125,3.6679688-6.1601563,1.5878906-9.1166992c-2.078125-2.9560547-6.1601563-3.668457-9.1162109-1.5878906
			l-38.8271484,27.3022461c-2.1738281,1.5283203-3.2060547,4.2197266-2.6142578,6.8115234
			c0.5917969,2.5908203,2.6914063,4.5654297,5.3125,4.9980469l69.8017578,11.5244141
			c0.3603516,0.0595703,0.71875,0.0878906,1.0742188,0.0878906c3.1455078,0,5.9199219-2.2734375,6.4501953-5.4780273
			C374.8955078,231.9790039,372.4814453,228.6113281,368.9160156,228.0224609z"/>
	</g>
</g>
</svg>
