<?xml version="1.0" encoding="utf-8"?>
<!DOCTYPE svg PUBLIC "-//W3C//DTD SVG 1.1//EN" "http://www.w3.org/Graphics/SVG/1.1/DTD/svg11.dtd">
<svg version="1.1" id="Layer_1" xmlns="http://www.w3.org/2000/svg" viewBox="0 0 512 512">
<style type="text/css">
<![CDATA[
	.st0{fill:#FFFFFF;}
]]>
</style>
<g>
	<g>
		<path class="st0" d="M93.0898438,310.140625c-0.6953125,6.265625-1.2460938,12.3984375-1.6621094,18.3984375
			c-0.4238281,1.9082031-1.1308594,3.1972656-2.1269531,3.875c-0.9921875,0.6679688-3.0292969,0.84375-6.1015625,0.5273438
			c-3.0917969-0.5585938-6.0898438-1.09375-9-1.6015625c-2.9140625-0.5078125-5.5292969-1.2773438-7.8359375-2.3085938
			c-2.3105469-1.0234375-4.1035156-2.4277344-5.3691406-4.1875c-1.2597656-1.765625-1.6738281-4.1835938-1.2421875-7.2695313
			c0.8105469-2.8769531,1.359375-7.6679688,1.6640625-14.359375c0.2988281-6.6992188,0.4355469-14.2890625,0.4042969-22.7714844
			c-0.0273438-8.4863281-0.0820313-17.2910156-0.1679688-26.4140625
			c-0.0820313-9.1171875-0.1054688-17.5429688-0.0703125-25.2753906c0.0351563-7.7246094,0.2695313-14.2148438,0.6953125-19.4609375
			c0.421875-5.2382813,1.1953125-8.2070313,2.3027344-8.8886719c4.21875-2.7011719,8.8886719-5.53125,14.0175781-8.4941406
			c5.1308594-2.9550781,10.4511719-5.6972656,15.9707031-8.2226563c5.5175781-2.5195313,11.0976563-4.6992188,16.7324219-6.5332031
			c5.6367188-1.8300781,11.1171875-3.0332031,16.4550781-3.609375c5.3339844-0.5761719,10.3535156-0.3964844,15.0605469,0.5449219
			c4.6992188,0.9414063,8.8808594,2.8984375,12.5273438,5.8515625c4.3320313,4.0800781,8.3710938,8.5,12.1171875,13.2695313
			s6.8652344,10.7304688,9.3554688,17.890625c1.1210938,3.53125,1.6171875,6.8867188,1.4804688,10.0566406
			c-0.1386719,3.1738281-0.75,6.2089844-1.84375,9.1152344c-1.1054688,2.8984375-2.5546875,5.7226563-4.3652344,8.4492188
			c-1.8164063,2.7265625-3.8339844,5.421875-6.0683594,8.0703125c-3.6113281,4.2949219-8.015625,8.5351563-13.2109375,12.7226563
			c-5.2011719,4.1953125-10.9101563,8.203125-17.1367188,12.0195313c-6.2265625,3.8085938-12.796875,7.3359375-19.7167969,10.5625
			c-6.9238281,3.2324219-13.7871094,6.078125-20.5957031,8.5351563
			C94.5332031,297.3710938,93.7773438,303.8710938,93.0898438,310.140625z M120.8183594,245.8613281
			c5.8339844-4.3027344,10.5488281-8.6347656,14.15625-12.9824219c3.6074219-4.3515625,6.0585938-8.4492188,7.3652344-12.3085938
			c1.3085938-3.8554688,1.3886719-7.0234375,0.234375-9.5039063c-0.4648438-1.3671875-1.8105469-2.328125-4.0234375-2.9023438
			c-2.2148438-0.5664063-4.9707031-0.6523438-8.2734375-0.2480469c-3.3007813,0.4003906-6.9746094,1.2402344-11.0175781,2.5292969
			c-4.0429688,1.2851563-8.1347656,3.0371094-12.2753906,5.2695313c-1.3183594,6.4375-2.53125,13.0898438-3.6328125,19.9765625
			c-1.1054688,6.8867188-2.2109375,14.0605469-3.3242188,21.5273438
			C108.0585938,253.9570313,114.984375,250.1679688,120.8183594,245.8613281z"/>
		<path class="st0" d="M85.8496094,335.34375c-0.84375,0-1.8046875-0.0566406-2.8828125-0.1679688
			c-3.2519531-0.578125-6.2460938-1.1132813-9.1582031-1.6132813c-3.0996094-0.5488281-5.9121094-1.3789063-8.3632813-2.4765625
			c-2.6640625-1.1835938-4.7792969-2.8417969-6.2792969-4.9296875c-1.6054688-2.2421875-2.15625-5.234375-1.6425781-8.8945313
			c0.0136719-0.1015625,0.0351563-0.1992188,0.0625-0.296875c0.7539063-2.6835938,1.2871094-7.34375,1.5800781-13.8515625
			c0.2949219-6.6132813,0.4335938-14.234375,0.4042969-22.6601563c-0.0292969-8.484375-0.0820313-17.2832031-0.1679688-26.4023438
			c-0.0820313-9.1289063-0.1054688-17.5644531-0.0703125-25.3085938c0.0351563-7.7363281,0.2695313-14.34375,0.7011719-19.6308594
			c0.515625-6.3925781,1.4941406-9.4707031,3.3691406-10.6230469c4.1484375-2.6601563,8.8945313-5.5371094,14.0683594-8.5273438
			c5.2148438-3,10.6523438-5.7988281,16.1621094-8.3183594c5.6054688-2.5605469,11.3085938-4.7910156,16.96875-6.6269531
			c5.765625-1.875,11.4589844-3.1210938,16.9140625-3.7070313c5.5351563-0.59375,10.8320313-0.40625,15.7382813,0.5742188
			c5.0429688,1.0078125,9.5859375,3.1328125,13.5117188,6.3085938c4.5351563,4.2714844,8.6875,8.8183594,12.4628906,13.6289063
			c3.8847656,4.9394531,7.1484375,11.1757813,9.7128906,18.5390625c1.21875,3.8320313,1.75,7.4765625,1.6015625,10.8945313
			c-0.1484375,3.4140625-0.8203125,6.7128906-1.9863281,9.8125c-1.1660156,3.0664063-2.7128906,6.0625-4.5957031,8.8984375
			c-1.8710938,2.8125-3.9609375,5.59375-6.2207031,8.2753906c-3.6894531,4.3828125-8.2382813,8.765625-13.5234375,13.0253906
			c-5.2597656,4.2480469-11.1035156,8.3476563-17.3730469,12.1875c-6.3164063,3.8632813-13.0234375,7.4570313-19.9375,10.6816406
			c-6.5078125,3.0410156-13.0566406,5.7753906-19.484375,8.1386719c-0.7558594,6.2421875-1.4570313,12.2773438-2.0976563,18.1132813
			c-0.6855469,6.1835938-1.2421875,12.3398438-1.65625,18.3046875c-0.0039063,0.1132813-0.0234375,0.2226563-0.046875,0.3359375
			C93.0625,331.5351563,92.0625,333.25,90.5703125,334.2695313C89.4804688,335.0058594,87.9824219,335.34375,85.8496094,335.34375z
			 M61.9609375,318.0273438c-0.3203125,2.4101563-0.0292969,4.2617188,0.8613281,5.5058594
			c1.0253906,1.4277344,2.5253906,2.5878906,4.4550781,3.4433594c2.1191406,0.9492188,4.5742188,1.6679688,7.3046875,2.1464844
			C77.5,329.6328125,80.5,330.1679688,83.59375,330.7226563c0.7421875,0.0703125,1.5507813,0.1210938,2.2558594,0.1210938
			c1.7167969,0,2.1914063-0.2929688,2.1972656-0.296875c0.2578125-0.1796875,0.765625-0.7304688,1.1445313-2.3398438
			c0.4199219-5.9726563,0.9765625-12.1328125,1.6621094-18.3144531c0.6894531-6.2753906,1.4433594-12.7851563,2.2714844-19.5332031
			c0.1015625-0.84375,0.6699219-1.5507813,1.4667969-1.8417969c6.7167969-2.4257813,13.5839844-5.2714844,20.4121094-8.4589844
			c6.7617188-3.1542969,13.3203125-6.6679688,19.4902344-10.4433594
			c6.1035156-3.7382813,11.7890625-7.7246094,16.8964844-11.8496094c5.0625-4.0820313,9.4023438-8.2617188,12.90625-12.4257813
			c2.1523438-2.5488281,4.140625-5.1972656,5.9140625-7.8671875c1.6992188-2.5566406,3.0898438-5.25,4.1367188-8
			c0.9980469-2.6445313,1.5703125-5.4785156,1.7011719-8.4101563c0.1269531-2.8925781-0.3378906-6.0117188-1.3769531-9.2792969
			c-2.3789063-6.8339844-5.4082031-12.6347656-8.9824219-17.1855469c-3.6386719-4.6328125-7.6386719-9.015625-11.8886719-13.0195313
			c-3.2226563-2.6054688-7.109375-4.4179688-11.4296875-5.28125c-4.4570313-0.890625-9.3007813-1.0644531-14.3710938-0.5136719
			c-5.1523438,0.5527344-10.5351563,1.734375-16.0078125,3.5097656c-5.4960938,1.7871094-11.0429688,3.9550781-16.4882813,6.4414063
			c-5.3828125,2.4609375-10.6953125,5.1992188-15.7851563,8.125c-5.1074219,2.953125-9.796875,5.7949219-13.9257813,8.4414063
			c0.0351563,0.0039063-0.7890625,1.1484375-1.2773438,7.1738281c-0.4179688,5.1777344-0.6484375,11.6660156-0.6835938,19.2871094
			c-0.0351563,7.7246094-0.0117188,16.140625,0.0703125,25.2460938c0.0859375,9.1269531,0.1386719,17.9375,0.1679688,26.4257813
			c0.0292969,8.5-0.109375,16.1992188-0.4101563,22.8847656C63.3515625,310.1484375,62.796875,314.9609375,61.9609375,318.0273438z
			 M100.0273438,259.4667969c-0.4960938,0-0.9882813-0.1621094-1.3925781-0.4804688
			C98,258.484375,97.6835938,257.6875,97.8007813,256.8867188c1.1152344-7.4765625,2.21875-14.6601563,3.3300781-21.5507813
			c1.1015625-6.8945313,2.3300781-13.6484375,3.6503906-20.0742188c0.1328125-0.6523438,0.546875-1.2109375,1.1328125-1.5273438
			c4.2148438-2.2734375,8.4765625-4.1015625,12.6640625-5.4375c4.1152344-1.3125,7.9609375-2.1953125,11.4277344-2.6132813
			c3.5488281-0.4394531,6.609375-0.3339844,9.1054688,0.3007813c2.9863281,0.7714844,4.8652344,2.2363281,5.5917969,4.3515625
			c1.3105469,2.7949219,1.2636719,6.5546875-0.234375,10.9570313c-1.3867188,4.0957031-3.9980469,8.4765625-7.7597656,13.0234375
			c-3.7207031,4.4785156-8.6191406,8.9726563-14.5566406,13.3554688c-5.9628906,4.40625-13.1230469,8.3164063-21.2792969,11.6328125
			C100.6015625,259.4101563,100.3125,259.4667969,100.0273438,259.4667969z M108.9765625,217.203125
			c-1.2246094,6.0507813-2.3671875,12.3828125-3.4042969,18.84375c-0.9082031,5.6445313-1.8144531,11.484375-2.7246094,17.5234375
			c6.2929688-2.8125,11.875-6.0039063,16.6328125-9.5195313c5.6484375-4.1660156,10.2773438-8.4082031,13.7617188-12.609375
			c3.4101563-4.1171875,5.7539063-8.0195313,6.96875-11.5957031c1.109375-3.2695313,1.21875-5.90625,0.3203125-7.8300781
			c-0.3535156-1-1.7382813-1.4648438-2.5429688-1.671875c-1.9296875-0.5-4.453125-0.5644531-7.4335938-0.1953125
			c-3.1914063,0.390625-6.7597656,1.2070313-10.6132813,2.4375
			C116.3242188,213.7382813,112.640625,215.2890625,108.9765625,217.203125z"/>
	</g>
	<g>
		<path class="st0" d="M247.3867188,204.0390625c2.1796875,3.515625,3.9023438,7.5898438,5.1601563,12.2070313
			c1.84375,7.6875,2.8378906,16.109375,2.984375,25.2851563c0.1464844,9.1699219-0.6484375,18.3710938-2.375,27.6015625
			c-1.7324219,9.2246094-4.40625,18.0234375-8.0371094,26.3867188c-3.6328125,8.3730469-8.3535156,15.6015625-14.1660156,21.6875
			c-3.9804688,3.6777344-8.2734375,6.2773438-12.8671875,7.796875c-4.59375,1.5234375-9.9570313,2.2304688-16.0917969,2.1152344
			c-4.0898438-0.0820313-8.3066406-0.3886719-12.6464844-0.9257813c-4.3457031-0.5390625-8.3554688-1.5644531-12.03125-3.0722656
			c-3.0078125-1.2421875-6.0019531-2.921875-8.9765625-5.0273438c-2.96875-2.109375-5.3867188-4.5859375-7.2421875-7.4335938
			c-2.9804688-4.6835938-5.3808594-10.0625-7.1914063-16.140625c-1.8125-6.0722656-2.9589844-12.5292969-3.4414063-19.3613281
			c-0.4785156-6.8320313-0.2792969-13.8574219,0.5996094-21.0839844c0.8847656-7.2148438,2.4746094-14.3085938,4.7753906-21.2773438
			c2.3007813-6.9648438,5.2910156-13.6425781,8.9882813-20.03125c3.6914063-6.3828125,8.1054688-12.2207031,13.2363281-17.4960938
			c3.4863281-3.1992188,7.7460938-5.765625,12.7910156-7.7109375c5.0449219-1.9335938,9.9414063-2.734375,14.7011719-2.390625
			c6.1621094,0.4335938,12.0703125,1.4316406,17.7402344,2.9804688c5.6640625,1.5566406,10.4316406,3.6171875,14.3105469,6.1757813
			C241.9414063,197.2890625,245.203125,200.5234375,247.3867188,204.0390625z M205.9550781,215.9921875
			c-2.5488281,2.8554688-5.015625,6.6328125-7.4003906,11.3535156c-2.3847656,4.7167969-4.5429688,9.9238281-6.4726563,15.6230469
			c-1.9238281,5.6992188-3.4121094,11.1679688-4.4609375,16.4179688c-1.0664063,5.140625-1.6835938,10.4335938-1.8574219,15.8671875
			c-0.1757813,5.4472656,0.0371094,10.4765625,0.65625,15.0976563c0.6113281,4.6171875,1.7011719,8.5273438,3.2675781,11.7226563
			c1.5625,3.1914063,3.5996094,5.0625,6.1191406,5.59375c2.3066406,0.5546875,4.6074219-0.1289063,6.9160156-2.0429688
			c2.3046875-1.9179688,4.53125-4.7421875,6.6835938-8.4765625c2.1484375-3.7304688,4.0898438-8.2675781,5.8320313-13.6328125
			c1.7382813-5.359375,3.1503906-11.1484375,4.2265625-17.3632813c0.9511719-5.1367188,1.5957031-10.75,1.9296875-16.8457031
			c0.3339844-6.0996094,0.2773438-11.7597656-0.171875-16.9863281c-0.4609375-5.3320313-1.3632813-9.8476563-2.6992188-13.5410156
			c-1.3417969-3.6972656-3.1054688-5.7773438-5.2910156-6.234375
			C210.9296875,211.9921875,208.5039063,213.140625,205.9550781,215.9921875z"/>
		<path class="st0" d="M203.265625,329.3808594l-1.3125-0.0117188c-4.1640625-0.0839844-8.4921875-0.4003906-12.8828125-0.9433594
			c-4.5195313-0.5585938-8.7617188-1.6445313-12.609375-3.2265625c-3.1367188-1.2929688-6.3066406-3.0664063-9.421875-5.265625
			c-3.1953125-2.2714844-5.8261719-4.9765625-7.828125-8.046875c-3.0898438-4.8515625-5.5976563-10.4726563-7.4648438-16.7246094
			c-1.8515625-6.2089844-3.0371094-12.8847656-3.5273438-19.8457031c-0.4882813-6.9453125-0.2832031-14.1855469,0.6132813-21.515625
			c0.8984375-7.3398438,2.5371094-14.640625,4.8691406-21.7089844c2.34375-7.0996094,5.4316406-13.9804688,9.1777344-20.4550781
			c3.7832031-6.5332031,8.3476563-12.5703125,13.5742188-17.9375c3.7578125-3.4609375,8.3027344-6.2070313,13.5898438-8.2421875
			c5.3476563-2.0449219,10.609375-2.9023438,15.671875-2.5351563c6.2519531,0.4414063,12.3671875,1.46875,18.171875,3.0566406
			c5.8632813,1.6113281,10.8964844,3.7851563,14.9570313,6.46875c4.609375,3.1464844,8.1152344,6.6425781,10.453125,10.4042969
			c2.2910156,3.6933594,4.1132813,8,5.4199219,12.8007813c1.8925781,7.8847656,2.9160156,16.5566406,3.0644531,25.84375
			c0.1464844,9.2753906-0.6640625,18.7109375-2.4179688,28.0507813c-1.7480469,9.3515625-4.5019531,18.390625-8.1816406,26.8691406
			c-3.7207031,8.578125-8.6347656,16.0957031-14.6035156,22.3457031c-4.2890625,3.96875-8.8945313,6.7539063-13.78125,8.3789063
			C214.3085938,328.6289063,209.0820313,329.3808594,203.265625,329.3808594z M203.4023438,187.3398438
			c-3.7753906,0-7.7265625,0.78125-11.7441406,2.3183594c-4.7558594,1.8300781-8.8183594,4.2792969-12.0703125,7.265625
			c-4.8769531,5.015625-9.2167969,10.7519531-12.8105469,16.96875c-3.59375,6.2089844-6.5546875,12.8066406-8.8046875,19.6113281
			c-2.2382813,6.7851563-3.8125,13.8007813-4.6757813,20.84375C152.4375,261.390625,152.2382813,268.3398438,152.7070313,275
			c0.4667969,6.6328125,1.59375,12.984375,3.3515625,18.8730469c1.7460938,5.8535156,4.0820313,11.0957031,6.9375,15.5761719
			c1.6757813,2.5761719,3.9140625,4.8730469,6.6445313,6.8085938c2.8398438,2.0078125,5.7109375,3.6171875,8.5351563,4.78125
			c3.4726563,1.4277344,7.3242188,2.4101563,11.4492188,2.921875c4.2363281,0.5214844,8.4101563,0.828125,12.4101563,0.9082031
			l1.2304688,0.0117188c5.3359375,0,10.0839844-0.6777344,14.1132813-2.0136719
			c4.2773438-1.4179688,8.328125-3.8789063,12.046875-7.3125c5.5-5.765625,10.1171875-12.8398438,13.625-20.9296875
			c3.5449219-8.1699219,6.1992188-16.8867188,7.890625-25.90625c1.6953125-9.0429688,2.484375-18.1796875,2.3398438-27.1523438
			c-0.1445313-8.9570313-1.125-17.3007813-2.9238281-24.796875c-1.1738281-4.3164063-2.8242188-8.2226563-4.8847656-11.5488281
			c-2.0039063-3.2226563-5.078125-6.2636719-9.1367188-9.0371094c-3.6367188-2.4023438-8.234375-4.3789063-13.6367188-5.8632813
			c-5.5195313-1.5078125-11.34375-2.4902344-17.3046875-2.9101563
			C204.7304688,187.3632813,204.0683594,187.3398438,203.4023438,187.3398438z M197.359375,310.1035156L197.359375,310.1035156
			c-0.6953125,0-1.390625-0.0820313-2.078125-0.2460938c-3.1542969-0.6679688-5.734375-2.9550781-7.6171875-6.7949219
			c-1.6660156-3.4023438-2.8378906-7.5820313-3.4726563-12.4179688c-0.6308594-4.6953125-0.859375-9.9023438-0.6796875-15.4609375
			c0.1796875-5.5566406,0.8222656-11.0234375,1.90625-16.2539063c1.0585938-5.2871094,2.5820313-10.9023438,4.5351563-16.6835938
			c1.9414063-5.7578125,4.1640625-11.1132813,6.59375-15.9179688c2.4570313-4.859375,5.0546875-8.84375,7.7304688-11.8378906
			c3.1191406-3.4863281,6.375-4.8730469,9.4804688-4.1367188c2.921875,0.6152344,5.2578125,3.1972656,6.8808594,7.6582031
			c1.3964844,3.8613281,2.3496094,8.609375,2.8242188,14.1132813c0.4570313,5.3222656,0.515625,11.1464844,0.1757813,17.3085938
			c-0.3339844,6.1210938-0.9941406,11.8847656-1.9628906,17.1289063c-1.078125,6.2421875-2.5253906,12.1835938-4.2949219,17.6484375
			c-1.78125,5.4765625-3.8085938,10.203125-6.0253906,14.0585938c-2.2714844,3.9453125-4.6914063,7-7.1953125,9.0820313
			C201.9589844,309.1796875,199.671875,310.1035156,197.359375,310.1035156z M212.0976563,214.65625
			c-1.265625,0-2.8085938,0.9804688-4.4648438,2.8339844c-2.4140625,2.6972656-4.7929688,6.3574219-7.0683594,10.8691406
			c-2.3378906,4.6132813-4.4746094,9.7695313-6.3496094,15.328125c-1.8886719,5.5957031-3.3652344,11.0273438-4.3867188,16.140625
			c-1.0390625,4.9941406-1.6484375,10.203125-1.8164063,15.5c-0.1738281,5.3125,0.0429688,10.2695313,0.6367188,14.7265625
			c0.5742188,4.3554688,1.6035156,8.0625,3.0585938,11.0273438c1.2578125,2.5664063,2.7519531,4.0039063,4.5664063,4.3867188
			c0.4003906,0.09375,0.7460938,0.1347656,1.0859375,0.1347656c1.2539063,0.0019531,2.5371094-0.5605469,3.9257813-1.7109375
			c2.0898438-1.7402344,4.1660156-4.3847656,6.1679688-7.8652344c2.0644531-3.5859375,3.9628906-8.0273438,5.6484375-13.2050781
			c1.7011719-5.2597656,3.1015625-10.9980469,4.1445313-17.0527344c0.9414063-5.0820313,1.5761719-10.6523438,1.8984375-16.5859375
			c0.328125-5.9492188,0.2734375-11.5605469-0.1640625-16.671875c-0.4453125-5.109375-1.3085938-9.4765625-2.5722656-12.96875
			c-0.7246094-1.9921875-1.9453125-4.4433594-3.6425781-4.796875C212.5,214.6796875,212.3046875,214.65625,212.0976563,214.65625z"
			/>
	</g>
	<g>
		<path class="st0" d="M286.9335938,258.4648438c2.5898438-7.9609375,5.1542969-15.6484375,7.6835938-23.0625
			c2.53125-7.4140625,4.9023438-14.171875,7.1152344-20.2734375c2.2148438-6.0976563,4.0527344-10.609375,5.5195313-13.53125
			c1.078125-2.453125,2.3613281-4.0703125,3.8535156-4.8398438c1.4902344-0.7714844,3.8164063-0.9179688,6.9746094-0.4414063
			c3.1425781,0.375,5.7910156,0.8417969,7.9335938,1.4101563c2.1445313,0.5683594,4.7089844,1.3164063,7.6855469,2.2421875
			c1.6601563,0.5,2.9140625,1.0351563,3.765625,1.6074219c0.8554688,0.5722656,1.5078125,1.2675781,1.9550781,2.0859375
			c0.4453125,0.8222656,0.7441406,1.8164063,0.9023438,2.9863281c0.1503906,1.171875,0.2988281,2.5546875,0.4335938,4.1503906
			c0.1582031,1.8144531,0.2675781,4.921875,0.3183594,9.3183594c0.0625,4.4023438,0.1269531,9.5507813,0.2089844,15.453125
			c0.0761719,5.8984375,0.1621094,12.1796875,0.2519531,18.8320313c0.0898438,6.65625,0.1914063,13.140625,0.3085938,19.4726563
			c1.7890625-5.421875,3.7382813-11.1484375,5.8496094-17.1835938c2.1113281-6.0371094,4.2480469-12.1015625,6.4082031-18.1992188
			c2.1601563-6.09375,4.3046875-12.0507813,6.4355469-17.875c2.1308594-5.8222656,4.1308594-11.2851563,6-16.390625
			c1.8730469-5.1015625,3.5742188-9.6796875,5.0996094-13.7363281c1.5332031-4.0527344,2.8339844-7.3574219,3.9003906-9.9238281
			c1.3144531-3.4414063,2.7558594-5.4160156,4.3242188-5.9296875c1.5644531-0.5078125,4.1132813-0.2148438,7.6464844,0.8710938
			c2.5546875,0.9648438,5.0976563,2.0585938,7.6171875,3.296875c2.5253906,1.2304688,4.984375,2.65625,7.3769531,4.2773438
			c2.6582031,2.1347656,4.0429688,4.5390625,4.1699219,7.2109375c0.1210938,2.6796875-0.3359375,5.4570313-1.3789063,8.3398438
			c-2.2421875,5.1367188-4.6894531,10.9824219-7.3496094,17.5507813c-2.6542969,6.5703125-5.3457031,13.4101563-8.0625,20.515625
			c-2.71875,7.1132813-5.4492188,14.359375-8.1972656,21.734375c-2.7480469,7.3867188-5.3515625,14.5390625-7.8203125,21.4609375
			c-2.4628906,6.9296875-4.7734375,13.4375-6.9375,19.5332031c-2.1601563,6.0957031-4.0097656,11.4121094-5.5546875,15.9492188
			c-0.8925781,2.1152344-2.2226563,3.5175781-3.9863281,4.2089844c-1.7695313,0.6894531-4.3828125,0.9140625-7.8398438,0.6757813
			c-1.9453125-0.1503906-3.6308594-0.359375-5.0449219-0.609375c-1.421875-0.2558594-2.7597656-0.4921875-4.0117188-0.703125
			c-1.2539063-0.21875-2.5097656-0.4570313-3.765625-0.7246094c-1.2617188-0.2675781-2.6523438-0.4941406-4.1699219-0.6855469
			c-3.0800781-0.8085938-5.3378906-2.09375-6.7753906-3.8496094c-1.4453125-1.7558594-2.4726563-3.7363281-3.0917969-5.9355469
			c-0.5097656-2.2109375-1.1503906-4.8984375-1.9042969-8.0546875c-0.7539063-3.1640625-1.5078125-6.6113281-2.2617188-10.359375
			c-0.7539063-3.75-1.484375-7.5820313-2.1972656-11.4960938c-0.7167969-3.9140625-1.2304688-7.734375-1.5527344-11.4648438
			c-2.0507813,4.9003906-4.1328125,9.9960938-6.2578125,15.28125c-2.1210938,5.2890625-4.125,10.421875-6,15.4238281
			c-1.8828125,4.9921875-3.6035156,9.6308594-5.1679688,13.9003906c-1.5644531,4.265625-2.8242188,7.7929688-3.765625,10.5566406
			c-1.09375,2.2441406-2.3457031,3.6113281-3.7539063,4.1113281c-1.40625,0.4941406-3.3515625,0.6914063-5.8320313,0.578125
			c-3.3515625-0.2460938-6.5820313-0.640625-9.6875-1.1757813c-3.109375-0.5371094-6.0878906-1.1132813-8.9335938-1.7265625
			c-2.6289063-0.6328125-4.5703125-1.6210938-5.8144531-2.96875c-1.2441406-1.3378906-2.1542969-3.4882813-2.7304688-6.4472656
			c-1.2285156-4.2988281-2.4375-9.2695313-3.6210938-14.9160156c-1.1835938-5.6484375-2.3222656-11.6992188-3.421875-18.15625
			c-1.1191406-6.7734375-2.2128906-13.8789063-3.2832031-21.3085938
			c-1.0664063-7.4257813-2.0839844-14.8320313-3.0429688-22.2226563c-0.9609375-7.375-1.7949219-14.6132813-2.5117188-21.6953125
			c-0.7148438-7.078125-1.34375-13.6621094-1.8632813-19.7421875c-0.1855469-3.4179688,0.2617188-5.6621094,1.3515625-6.71875
			c1.0898438-1.0625,3.375-1.3671875,6.8535156-0.9140625c4.0175781,0.515625,7.6640625,1.0898438,10.9453125,1.7148438
			c3.2753906,0.6308594,6.3652344,1.625,9.2792969,2.9882813c1.6835938,0.8183594,3.0625,1.8847656,4.140625,3.1855469
			c1.078125,1.3066406,1.9257813,2.7128906,2.5390625,4.2167969c0.6132813,1.5,1.0429688,3.0742188,1.2929688,4.7226563
			c0.25,1.640625,0.3789063,3.1601563,0.3945313,4.5585938c0.1308594,2.7792969,0.2929688,6.8476563,0.4882813,12.2011719
			c0.1875,5.3613281,0.4375,11.3222656,0.734375,17.90625c0.296875,6.5800781,0.6777344,13.4238281,1.125,20.53125
			c0.453125,7.1035156,0.953125,13.8535156,1.5039063,20.2519531
			C281.9414063,273.7695313,284.3417969,266.4179688,286.9335938,258.4648438z"/>
		<path class="st0" d="M285.2851563,328.5117188c-0.4453125,0-0.9101563-0.0097656-1.3945313-0.0332031
			c-3.4453125-0.2519531-6.7773438-0.65625-9.96875-1.2070313c-3.1445313-0.5410156-6.1523438-1.125-9.0273438-1.7460938
			c-3.1132813-0.7480469-5.4492188-1.9667969-6.9921875-3.6386719c-1.5449219-1.6582031-2.6210938-4.1308594-3.2851563-7.5507813
			c-1.1894531-4.125-2.421875-9.1953125-3.6171875-14.8789063c-1.1816406-5.6445313-2.3398438-11.78125-3.4335938-18.2421875
			c-1.1015625-6.6679688-2.2070313-13.8554688-3.2929688-21.3632813c-1.0742188-7.4375-2.0859375-14.8574219-3.046875-22.2519531
			c-0.953125-7.3183594-1.8027344-14.6386719-2.5234375-21.7617188c-0.7148438-7.0917969-1.3417969-13.6855469-1.8632813-19.7714844
			c-0.234375-4.2734375,0.4101563-6.9589844,2.0273438-8.5292969c1.6347656-1.59375,4.3242188-2.0976563,8.703125-1.5351563
			c4.0820313,0.5273438,7.8125,1.1132813,11.0839844,1.7441406c3.4511719,0.6601563,6.7519531,1.7246094,9.8105469,3.1601563
			c1.9882813,0.9648438,3.6308594,2.2324219,4.9199219,3.78125c1.2304688,1.4960938,2.1972656,3.1054688,2.8886719,4.8085938
			c0.6757813,1.6523438,1.1601563,3.4160156,1.4335938,5.2324219c0.2597656,1.7011719,0.4003906,3.3398438,0.4179688,4.8691406
			c0.1289063,2.7011719,0.2890625,6.78125,0.4863281,12.1464844c0.1894531,5.3535156,0.4355469,11.3105469,0.7382813,17.8847656
			c0.2949219,6.5703125,0.6738281,13.3945313,1.1230469,20.4882813c0.1953125,3.0742188,0.4003906,6.0859375,0.6113281,9.0175781
			c1.1894531-3.6425781,2.4257813-7.4296875,3.7089844-11.3671875c2.5957031-7.9707031,5.1601563-15.6679688,7.6933594-23.0917969
			c2.4960938-7.3183594,4.8964844-14.1523438,7.1269531-20.3144531c2.28125-6.2695313,4.1230469-10.7753906,5.6289063-13.7753906
			c1.2539063-2.8632813,2.8515625-4.8046875,4.8242188-5.8300781c1.9570313-1.0058594,4.6601563-1.2207031,8.3476563-0.6660156
			c3.1875,0.3789063,5.9609375,0.875,8.1738281,1.4648438c2.1679688,0.5722656,4.7675781,1.328125,7.7792969,2.265625
			c1.8710938,0.5585938,3.296875,1.1796875,4.3515625,1.8867188c1.1464844,0.7675781,2.046875,1.734375,2.6699219,2.8671875
			c0.5839844,1.0820313,0.9726563,2.34375,1.1601563,3.7734375c0.1542969,1.2148438,0.3105469,2.6289063,0.4472656,4.2617188
			c0.1640625,1.8671875,0.2695313,4.9707031,0.328125,9.4804688l0.4609375,34.2792969
			c0.0292969,2.1699219,0.0585938,4.3222656,0.0898438,6.4550781c0.5507813-1.6015625,1.1171875-3.2265625,1.6953125-4.875
			c2.109375-6.0390625,4.25-12.1054688,6.4101563-18.2070313c2.1640625-6.1015625,4.3085938-12.0664063,6.4414063-17.9023438
			l6-16.3867188c1.875-5.1113281,3.5800781-9.6953125,5.109375-13.7578125
			c1.5410156-4.0800781,2.8535156-7.4101563,3.9296875-9.9960938c1.5820313-4.140625,3.4003906-6.4492188,5.703125-7.1992188
			c2.0683594-0.6679688,4.9023438-0.40625,9.0058594,0.8574219c2.765625,1.0410156,5.3925781,2.1777344,7.9453125,3.421875
			c2.5917969,1.265625,5.1679688,2.7597656,7.6464844,4.4355469c3.3164063,2.6640625,5,5.6445313,5.1523438,8.9765625
			c0.140625,2.9589844-0.3652344,6.0585938-1.5039063,9.2050781c-2.2832031,5.2363281-4.7460938,11.1210938-7.3808594,17.6308594
			c-2.6953125,6.6640625-5.4023438,13.5527344-8.0488281,20.4726563c-2.7148438,7.109375-5.4414063,14.3476563-8.1875,21.71875
			c-2.7460938,7.3730469-5.3476563,14.5195313-7.8105469,21.4335938l-6.9375,19.5273438
			c-2.1582031,6.0859375-4.0019531,11.3886719-5.5429688,15.921875c-1.1933594,2.8378906-2.9550781,4.6640625-5.2988281,5.578125
			c-2.109375,0.828125-4.9609375,1.1015625-8.8164063,0.8242188c-1.9980469-0.1523438-3.7734375-0.3671875-5.2890625-0.640625
			c-1.40625-0.25-2.7382813-0.4863281-3.984375-0.6972656c-1.2910156-0.2226563-2.578125-0.46875-3.859375-0.7402344
			c-1.2070313-0.2578125-2.53125-0.4765625-3.9824219-0.65625c-3.8203125-0.9804688-6.4941406-2.5273438-8.2363281-4.65625
			c-1.6308594-1.9765625-2.8144531-4.25-3.515625-6.75c-0.5390625-2.3046875-1.1738281-4.9921875-1.9257813-8.140625
			c-0.7617188-3.1875-1.5214844-6.6640625-2.28125-10.4414063c-0.7578125-3.7597656-1.4921875-7.609375-2.2070313-11.53125
			c-0.1875-1.03125-0.3632813-2.0664063-0.5273438-3.1015625c-0.984375,2.4101563-1.9785156,4.859375-2.984375,7.3515625
			c-2.1054688,5.2675781-4.109375,10.3886719-5.9785156,15.375c-1.8847656,4.9882813-3.5976563,9.6210938-5.1621094,13.8828125
			c-1.5546875,4.25-2.8066406,7.7578125-3.7441406,10.5078125c-1.4863281,3.0839844-3.1308594,4.8007813-5.1386719,5.5078125
			C289.1601563,328.2675781,287.4335938,328.5117188,285.2851563,328.5117188z M244.4921875,190.2851563
			c-1.9394531,0-2.4375,0.4277344-2.4882813,0.4765625c-0.0957031,0.09375-0.8925781,0.9921875-0.6757813,4.9882813
			c0.515625,6,1.140625,12.5664063,1.8515625,19.6367188c0.71875,7.078125,1.5625,14.3554688,2.5117188,21.6328125
			c0.953125,7.3769531,1.96875,14.7734375,3.0351563,22.1894531c1.0800781,7.4785156,2.1816406,14.6347656,3.2773438,21.2636719
			c1.0839844,6.3925781,2.2324219,12.4726563,3.4023438,18.0585938c1.171875,5.5820313,2.3789063,10.5429688,3.5820313,14.7597656
			c0.53125,2.6835938,1.28125,4.5332031,2.2148438,5.5332031c0.9335938,1.015625,2.5078125,1.7910156,4.6914063,2.3125
			c2.765625,0.5976563,5.7148438,1.1679688,8.7910156,1.6992188c3.0527344,0.5273438,6.234375,0.9140625,9.46875,1.1523438
			c0.3515625,0.0136719,0.75,0.0234375,1.1308594,0.0234375c1.6054688,0,2.8769531-0.1621094,3.7890625-0.484375
			c0.8046875-0.2851563,1.6835938-1.3398438,2.484375-2.9726563c0.8339844-2.515625,2.0976563-6.0566406,3.6699219-10.3457031
			c1.5703125-4.2753906,3.2910156-8.9199219,5.1738281-13.9199219c1.8808594-5.0117188,3.8945313-10.1621094,6.0175781-15.46875
			c2.1328125-5.296875,4.21875-10.3984375,6.2714844-15.3125c0.3984375-0.953125,1.3925781-1.5039063,2.4257813-1.3554688
			c1.0234375,0.1601563,1.8046875,0.9980469,1.8945313,2.03125c0.3183594,3.7109375,0.8320313,7.5,1.5195313,11.2539063
			c0.7109375,3.9023438,1.4414063,7.7226563,2.1953125,11.4550781c0.7460938,3.7246094,1.4921875,7.1464844,2.2421875,10.2871094
			c0.7539063,3.1601563,1.3945313,5.8496094,1.9082031,8.0664063c0.5058594,1.7929688,1.4042969,3.5136719,2.6367188,5.0136719
			c1.1269531,1.3808594,3.0136719,2.4238281,5.6074219,3.0996094c1.296875,0.1445313,2.75,0.3828125,4.0703125,0.6640625
			c1.2226563,0.2617188,2.4511719,0.4960938,3.6816406,0.7070313c1.2441406,0.2109375,2.5917969,0.4492188,4.0175781,0.703125
			c1.3730469,0.25,2.9921875,0.4414063,4.8242188,0.5820313c3.0078125,0.2207031,5.4179688,0.0351563,6.8496094-0.5273438
			c1.1855469-0.4609375,2.0800781-1.4414063,2.7363281-2.9882813c1.4882813-4.3964844,3.3359375-9.7167969,5.5019531-15.8242188
			l6.9394531-19.5351563c2.4726563-6.9335938,5.0820313-14.0957031,7.8320313-21.4921875
			c2.75-7.3828125,5.484375-14.6328125,8.2070313-21.7539063c2.6523438-6.9492188,5.3710938-13.8632813,8.0761719-20.5546875
			c2.6484375-6.546875,5.1328125-12.4726563,7.3730469-17.609375c0.8828125-2.4492188,1.3007813-4.9648438,1.1914063-7.3320313
			c-0.09375-2.0175781-1.1816406-3.8359375-3.3320313-5.5683594C398.9375,183.3867188,396.546875,182,394.1347656,180.8222656
			c-2.4238281-1.1855469-4.9199219-2.2636719-7.4199219-3.2089844c-2.9863281-0.9160156-5.5664063-1.0273438-6.15625-0.8359375
			c-0.2226563,0.0722656-1.40625,0.6347656-2.921875,4.59375c-1.0859375,2.6054688-2.375,5.890625-3.8925781,9.9140625
			c-1.5292969,4.046875-3.2285156,8.6210938-5.0976563,13.7148438l-6,16.3867188
			c-2.1269531,5.8183594-4.265625,11.7714844-6.4238281,17.859375c-2.1601563,6.0898438-4.296875,12.1523438-6.40625,18.1875
			c-2.109375,6.0234375-4.0507813,11.7363281-5.8378906,17.1445313c-0.3457031,1.0429688-1.3945313,1.6953125-2.4726563,1.5175781
			c-1.0839844-0.1621094-1.8925781-1.0839844-1.9121094-2.1816406c-0.1171875-6.3320313-0.2207031-12.8242188-0.3085938-19.484375
			l-0.4609375-34.28125c-0.0546875-4.3359375-0.15625-7.4179688-0.3085938-9.1523438
			c-0.1328125-1.5664063-0.2792969-2.921875-0.4296875-4.0664063c-0.1171875-0.875-0.3320313-1.6171875-0.6464844-2.1992188
			c-0.2695313-0.4882813-0.6738281-0.9160156-1.2285156-1.2851563c-0.4570313-0.3085938-1.375-0.7890625-3.1601563-1.3203125
			c-2.9609375-0.9238281-5.4960938-1.6621094-7.6171875-2.2246094c-2.0097656-0.5332031-4.5703125-0.9863281-7.6210938-1.3496094
			c-3.1835938-0.4785156-5.0351563-0.1289063-5.6757813,0.203125c-0.9960938,0.515625-1.9726563,1.8125-2.8242188,3.7480469
			c-1.4609375,2.90625-3.28125,7.3769531-5.46875,13.3945313c-2.2226563,6.1308594-4.6074219,12.9394531-7.0976563,20.2324219
			c-2.5273438,7.40625-5.0859375,15.078125-7.6757813,23.0332031s-4.9921875,15.3066406-7.203125,22.0546875
			c-0.3359375,1.0136719-1.3632813,1.6308594-2.3984375,1.5351563c-1.0625-0.1230469-1.890625-0.9785156-1.9824219-2.0410156
			c-0.5410156-6.3085938-1.0488281-13.140625-1.5-20.3066406c-0.4570313-7.1230469-0.8339844-13.9785156-1.1308594-20.5722656
			c-0.3007813-6.5898438-0.546875-12.5585938-0.7421875-17.9257813c-0.1914063-5.3398438-0.3535156-9.4023438-0.484375-12.1796875
			c-0.015625-1.4003906-0.1386719-2.8242188-0.3710938-4.3183594c-0.2226563-1.4707031-0.609375-2.8886719-1.1503906-4.2167969
			c-0.5214844-1.28125-1.2597656-2.5039063-2.1914063-3.6367188c-0.8671875-1.0429688-2.0097656-1.9199219-3.3886719-2.5878906
			c-2.6933594-1.2636719-5.6367188-2.2089844-8.7226563-2.8027344c-3.1816406-0.6132813-6.8203125-1.1835938-10.8085938-1.6972656
			C246.0664063,190.3476563,245.2363281,190.2851563,244.4921875,190.2851563z"/>
	</g>
	<g>
		<path class="st0" d="M388.1816406,305.1015625c0.84375-2.0625,2.1679688-3.8359375,3.9726563-5.3398438
			c1.8046875-1.4921875,4.0527344-2.5429688,6.7382813-3.1582031c2.6855469-0.6074219,5.7753906-0.5742188,9.2714844,0.0917969
			c2.9453125,0.4941406,5.3828125,1.3847656,7.3203125,2.6738281c1.9355469,1.2792969,3.4023438,2.7421875,4.40625,4.3710938
			c1,1.6308594,1.5976563,3.3027344,1.8007813,5.0019531c0.1992188,1.7011719,0.140625,3.2109375-0.1757813,4.5273438
			c-0.234375,0.9882813-0.7539063,2.1835938-1.5429688,3.59375c-0.7890625,1.4140625-1.8046875,2.734375-3.0429688,3.9726563
			c-1.234375,1.2304688-2.7539063,2.3320313-4.546875,3.2949219c-1.796875,0.9589844-3.875,1.5351563-6.21875,1.7363281
			c-5,0.5390625-9.3808594-0.421875-13.140625-2.8945313c-3.7539063-2.4648438-5.7460938-6.2714844-5.9765625-11.40625
			C386.9609375,309.3183594,387.3398438,307.1640625,388.1816406,305.1015625z M441.8769531,183.96875
			c0.8671875,1.9140625,0.9394531,4.3515625,0.2285156,7.3164063c-2.0820313,8.2304688-4.1328125,16.578125-6.140625,25.0195313
			c-2.0117188,8.4492188-3.9296875,16.7773438-5.7421875,24.9882813
			c-1.8203125,8.2128906-3.4492188,16.1171875-4.8867188,23.7070313c-1.4453125,7.59375-2.6875,14.6484375-3.7324219,21.1914063
			c-0.3457031,2.28125-1.0488281,3.7421875-2.1230469,4.3671875c-1.0742188,0.6328125-2.8671875,0.734375-5.3769531,0.3046875
			c-3.0292969-0.2773438-5.8339844-0.7050781-8.4082031-1.2890625c-2.5722656-0.5820313-5.0820313-1.359375-7.53125-2.3339844
			c-2.5625-1.0664063-4.3105469-2.3339844-5.2421875-3.8144531c-0.9316406-1.4765625-1.2695313-3.7890625-1.0019531-6.9296875
			c0.3222656-6.25,0.8925781-13.6367188,1.7207031-22.1386719c0.8242188-8.5058594,1.8164063-17.2617188,2.9726563-26.2832031
			c1.15625-9.0136719,2.3730469-17.9316406,3.65625-26.7382813c1.2832031-8.8125,2.53125-16.7109375,3.7617188-23.6914063
			c0.5664063-3.3828125,1.6445313-5.5117188,3.234375-6.40625c1.5878906-0.8828125,4.1367188-0.890625,7.6484375-0.0117188
			c3.2792969,0.5820313,6.875,1.5078125,10.796875,2.7753906c3.9257813,1.2714844,7.3535156,2.7519531,10.2929688,4.4296875
			C439.0546875,180.2128906,441.015625,182.0625,441.8769531,183.96875z"/>
		<path class="st0" d="M403.53125,328.2617188c-4.3554688,0-8.3046875-1.1484375-11.7421875-3.4101563
			c-4.3789063-2.8710938-6.7304688-7.3085938-6.9921875-13.1875c-0.0976563-2.578125,0.3398438-5.0664063,1.3007813-7.4179688
			c0.9824219-2.3945313,2.5351563-4.484375,4.6152344-6.2148438c2.0644531-1.7109375,4.6523438-2.9277344,7.6777344-3.6210938
			c2.9804688-0.6757813,6.3984375-0.6523438,10.1933594,0.0722656c3.2011719,0.5390625,5.9550781,1.5566406,8.1464844,3.0136719
			c2.1875,1.4453125,3.8984375,3.1503906,5.0742188,5.0625c1.1640625,1.9023438,1.875,3.8886719,2.1191406,5.9140625
			c0.2324219,1.9570313,0.1542969,3.7402344-0.2207031,5.3203125c-0.2851563,1.1914063-0.8632813,2.5507813-1.7695313,4.1679688
			c-0.8828125,1.5820313-2.03125,3.0859375-3.4121094,4.4648438c-1.3828125,1.3789063-3.0878906,2.6171875-5.0722656,3.6855469
			c-2.0742188,1.1015625-4.4550781,1.7714844-7.0917969,1.9941406
			C405.4257813,328.2089844,404.4648438,328.2617188,403.53125,328.2617188z M403.0058594,298.4199219
			c-1.2890625,0-2.5058594,0.1269531-3.6152344,0.3769531c-2.3359375,0.5351563-4.2890625,1.4414063-5.8046875,2.6992188
			c-1.5253906,1.265625-2.6132813,2.7246094-3.3203125,4.4570313c-0.71875,1.75-1.0429688,3.6113281-0.9726563,5.5273438
			c0.1953125,4.3984375,1.8203125,7.546875,4.9648438,9.609375c3.34375,2.1992188,7.1757813,3.03125,11.6660156,2.5371094
			c2.0800781-0.1757813,3.8789063-0.6738281,5.4003906-1.4824219c1.5898438-0.859375,2.9453125-1.8359375,4.0195313-2.9023438
			c1.0820313-1.0859375,1.9824219-2.2578125,2.6640625-3.4785156c0.6894531-1.2324219,1.1347656-2.25,1.3203125-3.0214844
			c0.25-1.0546875,0.2949219-2.3164063,0.1289063-3.7402344c-0.1640625-1.3691406-0.6660156-2.7480469-1.4863281-4.0878906
			c-0.8300781-1.34375-2.0839844-2.5800781-3.7285156-3.6679688c-1.6640625-1.109375-3.8320313-1.8945313-6.453125-2.3359375
			C406.0585938,298.5820313,404.4648438,298.4199219,403.0058594,298.4199219z M416.796875,293.375
			c-0.9023438,0-1.9375-0.0996094-3.0703125-0.2929688c-2.9394531-0.2636719-5.8632813-0.7109375-8.5273438-1.3125
			c-2.6953125-0.609375-5.3398438-1.4296875-7.8710938-2.4414063c-3.0625-1.2773438-5.1152344-2.8085938-6.3105469-4.703125
			c-1.2167969-1.921875-1.6523438-4.6484375-1.3378906-8.3242188c0.3183594-6.234375,0.8984375-13.7148438,1.7226563-22.1601563
			c0.8203125-8.484375,1.8203125-17.3515625,2.9765625-26.3515625c1.21875-9.4726563,2.4160156-18.2304688,3.6601563-26.78125
			c1.3222656-9.0527344,2.5546875-16.8242188,3.7773438-23.7539063c0.6796875-4.1015625,2.1035156-6.71875,4.3476563-7.9765625
			c2.1328125-1.1914063,5.1484375-1.265625,9.296875-0.2324219c3.1992188,0.5605469,6.9296875,1.5214844,10.9414063,2.8144531
			c4.0429688,1.3105469,7.6464844,2.8632813,10.7167969,4.6171875c3.5214844,2.0585938,5.7421875,4.1992188,6.8085938,6.5625
			c1.0683594,2.375,1.1933594,5.3242188,0.3652344,8.765625c-2.0878906,8.2578125-4.1367188,16.5898438-6.1425781,25.0195313
			c-2.0175781,8.484375-3.9492188,16.8828125-5.7324219,24.9570313c-1.8085938,8.1640625-3.4492188,16.1152344-4.8710938,23.6367188
			c-1.421875,7.4726563-2.6738281,14.5800781-3.7265625,21.1289063c-0.4492188,3.0039063-1.5,4.9609375-3.2070313,5.9550781
			C419.6230469,293.0878906,418.3710938,293.375,416.796875,293.375z M410.3828125,172.8203125
			c-0.8730469,0-1.5742188,0.1328125-2.0195313,0.3828125c-0.5390625,0.3046875-1.5351563,1.3320313-2.1113281,4.8085938
			c-1.2011719,6.8125-2.4628906,14.7617188-3.7597656,23.6464844c-1.2421875,8.5214844-2.4335938,17.2597656-3.6484375,26.7050781
			c-1.1484375,8.953125-2.1484375,17.7695313-2.9648438,26.2109375c-0.8125,8.3789063-1.390625,15.7929688-1.7109375,22.0371094
			c-0.3027344,3.515625,0.28125,5.0175781,0.6523438,5.6113281c0.6757813,1.0683594,2.0917969,2.0585938,4.2109375,2.9414063
			c2.2753906,0.90625,4.7011719,1.65625,7.1621094,2.2167969c2.4667969,0.5566406,5.1972656,0.9746094,8.1152344,1.2421875
			c2.75,0.4570313,3.8632813,0.0957031,4.0273438,0c0.2617188-0.1523438,0.7597656-0.9003906,1.0390625-2.7675781
			c1.0585938-6.6132813,2.3222656-13.765625,3.7519531-21.2792969c1.4296875-7.5605469,3.0761719-15.5605469,4.8964844-23.7675781
			c1.7890625-8.0976563,3.7265625-16.5195313,5.75-25.0273438c2.0117188-8.4492188,4.0664063-16.8066406,6.1484375-25.0507813
			c0.5839844-2.421875,0.5546875-4.3984375-0.0957031-5.8398438s-2.3652344-3.0019531-4.9570313-4.515625
			c-2.7871094-1.5917969-6.1054688-3.0195313-9.8535156-4.2304688c-3.8105469-1.234375-7.34375-2.1425781-10.4921875-2.703125
			C412.8046875,173.0195313,411.4648438,172.8203125,410.3828125,172.8203125z"/>
	</g>
</g>
<g>
</g>
<g>
</g>
<g>
</g>
<g>
</g>
<g>
</g>
<g>
</g>
<g>
</g>
<g>
</g>
<g>
</g>
<g>
</g>
<g>
</g>
<g>
</g>
<g>
</g>
<g>
</g>
<g>
</g>
</svg>
