<?xml version="1.0" encoding="utf-8"?>
<!DOCTYPE svg PUBLIC "-//W3C//DTD SVG 1.1//EN" "http://www.w3.org/Graphics/SVG/1.1/DTD/svg11.dtd">
<svg version="1.1" id="Layer_1" xmlns="http://www.w3.org/2000/svg" viewBox="0 0 512 512">
<g>
	<g>
		<path fill="#7d91a2" d="M154.4160156,458.4824219c0,16.0664063-8.8945313,26.15625-23.0625,26.15625
			c-14.1328125,0-23.0273438-10.0898438-23.0273438-26.15625s8.8945313-26.1914063,23.0273438-26.1914063
			S154.4160156,442.4160156,154.4160156,458.4824219z M113.2480469,458.4824219
			c0,13.2890625,6.9960938,21.6914063,18.1054688,21.6914063s18.140625-8.4023438,18.140625-21.6914063
			c0-13.3242188-7.03125-21.7265625-18.140625-21.7265625S113.2480469,445.1582031,113.2480469,458.4824219z"/>
		<path fill="#7d91a2" d="M166.6503906,483.8300781h-4.78125v-50.7304688h17.8945313
			c9.9140625,0,16.2421875,5.8007813,16.2421875,14.8359375c0,7.171875-4.078125,12.5859375-10.8632813,14.34375
			l12.3046875,21.5507813h-5.625l-11.671875-20.7773438c-0.1757813,0-0.5273438,0-0.7734375,0h-12.7265625V483.8300781z
			 M166.6503906,458.7988281h12.7265625c7.3828125,0,11.671875-3.9375,11.671875-10.7226563
			c0-6.7148438-4.4648438-10.6875-11.8476563-10.6875h-12.5507813V458.7988281z"/>
		<path fill="#7d91a2" d="M221.0722656,433.0996094c9.703125,0,16.2773438,6.3632813,16.2773438,15.7851563
			s-6.6445313,15.8203125-16.3125,15.8203125h-12.4453125v19.125h-4.78125v-50.7304688H221.0722656z M208.5917969,460.4160156
			h11.3554688c7.8046875,0,12.4804688-4.3242188,12.4804688-11.53125s-4.640625-11.4960938-12.4804688-11.4960938h-11.3554688
			V460.4160156z"/>
		<path fill="#7d91a2" d="M278.6933594,483.8300781v-23.8007813h-29.671875v23.8007813h-4.78125v-50.7304688h4.78125v22.5703125
			h29.671875v-22.5703125h4.8164063v50.7304688H278.6933594z"/>
		<path fill="#7d91a2" d="M323.6230469,483.8300781h-30.6210938v-50.7304688h30.6210938v4.359375h-25.8398438v18.2460938h24.5390625
			v4.2890625h-24.5390625v19.4765625h25.8398438V483.8300781z"/>
		<path fill="#7d91a2" d="M336.5957031,465.8300781c0,8.5078125,5.5546875,14.34375,14.8359375,14.34375
			c9.3164063,0,14.8359375-5.8359375,14.8359375-14.34375v-32.7304688h4.8164063v33.0117188
			c0,10.9335938-7.453125,18.5273438-19.6523438,18.5273438s-19.6171875-7.59375-19.6171875-18.5273438v-33.0117188h4.78125
			V465.8300781z"/>
		<path fill="#7d91a2" d="M382.8964844,470.0488281c0.5273438,6.0820313,6.2578125,10.2304688,14.203125,10.2304688
			c7.59375,0,13.0429688-4.1484375,13.0429688-9.84375c0-4.7460938-3.2695313-7.5585938-10.7929688-9.4570313l-6.2929688-1.6171875
			c-9.3867188-2.390625-13.5703125-6.3632813-13.5703125-13.0429688c0-8.1914063,7.3828125-14.0273438,17.3671875-14.0273438
			c9.8789063,0,17.1210938,5.8359375,17.4023438,13.8867188h-4.8164063
			c-0.4570313-5.7304688-5.5195313-9.5273438-12.7265625-9.5273438c-7.03125,0-12.234375,3.9023438-12.234375,9.4921875
			c0,4.359375,3.1640625,6.9257813,10.6171875,8.8242188l5.484375,1.40625
			c10.1953125,2.5664063,14.484375,6.46875,14.484375,13.5351563c0,8.8945313-7.171875,14.7304688-18.3867188,14.7304688
			c-10.6171875,0-18.0703125-5.8710938-18.5976563-14.5898438H382.8964844z"/>
	</g>
	
		<linearGradient id="SVGID_1_" gradientUnits="userSpaceOnUse" x1="373.4189453" y1="201.0263672" x2="87.5776978" y2="288.4168701" gradientTransform="matrix(-0.2923717 -0.9563047 -0.9563047 0.2923717 546.7060547 404.546875)">
		<stop  offset="0.3546798" style="stop-color:#FFFFFF"/>
		<stop  offset="0.7096059" style="stop-color:#7d91a2"/>
	</linearGradient>
	<path display="none" fill="url(#SVGID_1_)" d="M104.340332,131.2270508
		c-26.7080078,42.402832-35.4990234,95.7646484-19.6962891,147.4526367
		c15.9228516,52.0800781,53.4853516,91.5830078,99.8271484,111.6699219
		c37.5917969,16.3203125,80.9663086,19.8408203,123.2290039,6.9189453c27.8066406-8.5,52.0283203-23.1728516,71.6220703-42.0634766
		c31.0957031-38.0966797,43.2158203-90.5097656,27.7558594-141.0795898
		c-3.2744141-10.7084961-7.6337891-20.8056641-12.8974609-30.1962891
		c-30.28125-53.9335938-90.9179688-84.5820313-152.6982422-76.3964844
		c56.40625-6.6889648,111.2597656,27.6733398,128.4570313,83.9238281
		c16.3701172,53.5449219-6.6621094,109.7563477-52.5107422,137.4165039
		c-8.2763672,5.0234375-17.2900391,9.0849609-26.9580078,12.0410156c-0.6650391,0.203125-1.3300781,0.4072266-2,0.59375
		c-0.5537109,0.1865234-1.1269531,0.3613281-1.6845703,0.5332031
		c-69.7983398,21.3388672-143.1323242-9.8857422-177.4477539-71.0253906
		c-5.2822266-9.3867188-9.6191406-19.4731445-12.8935547-30.1831055
		C84.909668,203.1025391,88.7231445,164.3125,104.340332,131.2270508z"/>
	
		<linearGradient id="SVGID_2_" gradientUnits="userSpaceOnUse" x1="426.0488281" y1="167.5161133" x2="130.1387024" y2="257.9849548" gradientTransform="matrix(-0.2923717 -0.9563047 -0.9563047 0.2923717 546.7060547 404.546875)">
		<stop  offset="0.35" style="stop-color:#7d91a2"/>
		<stop  offset="1" style="stop-color:#FFFFFF"/>
	</linearGradient>
	<path fill="url(#SVGID_2_)" d="M203.2475586,55.6186523c-42.65625,13.0405273-76.8759766,40.5947266-98.9072266,75.6083984
		C88.7231445,164.3125,84.909668,203.1025391,96.4448242,240.8325195
		c3.2744141,10.7099609,7.6113281,20.7963867,12.8935547,30.1831055
		c34.3154297,61.1396484,107.6494141,92.3642578,177.4477539,71.0253906
		c0.5576172-0.171875,1.1308594-0.3466797,1.6845703-0.5332031C225.8427734,359.5,160.1381836,323.9941406,141.0151367,261.4462891
		c-19.3310547-63.2290039,16.234375-130.1430664,79.4619141-149.4736328c2.6738281-0.8173828,5.359375-1.5380859,8.046875-2.1445313
		c3.6352539-0.8657227,7.2807617-1.5327148,10.9287109-2.0205078c0.6816406-0.0932617,1.3618164-0.1865234,2.0297852-0.2749023
		c61.7802734-8.1855469,122.4169922,22.4628906,152.6982422,76.3964844
		c5.2636719,9.390625,9.6230469,19.487793,12.8974609,30.1962891
		c15.4599609,50.5698242,3.3398438,102.9829102-27.7558594,141.0795898
		c46.90625-45.1591797,67.3144531-114.4428711,46.9726563-180.9785156
		c-20.2128906-66.1132813-75.2744141-111.9594727-138.8769531-123.5634766
		C260.234375,45.6953125,231.4921875,46.9829102,203.2475586,55.6186523z"/>
	
		<linearGradient id="SVGID_3_" gradientUnits="userSpaceOnUse" x1="443.9755859" y1="133.8017578" x2="148.0649719" y2="224.270752" gradientTransform="matrix(0.2923717 0.9563047 0.9563047 -0.2923717 -8.7773438 21.34375)">
		<stop  offset="0.35" style="stop-color:#7d91a2"/>
		<stop  offset="1" style="stop-color:#FFFFFF"/>
	</linearGradient>
	<path fill="url(#SVGID_3_)" d="M307.6806641,397.2714844c42.65625-13.0400391,76.8759766-40.5947266,98.9072266-75.6083984
		c15.6171875-33.0849609,19.4306641-71.875,7.8955078-109.6049805
		c-3.2744141-10.7094727-7.6113281-20.7958984-12.8935547-30.1831055
		c-34.3154297-61.1391602-107.6494141-92.3642578-177.4477539-71.0253906
		c-0.5571289,0.171875-1.1308594,0.347168-1.684082,0.5332031c62.6279297-17.9916992,128.3320313,17.5141602,147.4550781,80.0615234
		c19.3310547,63.2294922-16.234375,130.1435547-79.4619141,149.4736328c-2.6738281,0.8173828-5.359375,1.5380859-8.046875,2.1445313
		c-3.6347656,0.8662109-7.2802734,1.5322266-10.9287109,2.0205078c-0.6816406,0.09375-1.3613281,0.1865234-2.0302734,0.2753906
		c-61.7797852,8.1845703-122.4165039-22.4628906-152.6977539-76.3974609
		c-5.2636719-9.3896484-9.6225586-19.4873047-12.8969727-30.1958008
		c-15.4604492-50.5698242-3.3398438-102.9824219,27.7553711-141.0795898
		c-46.90625,45.1591797-67.3144531,114.4428711-46.9731445,180.9785156
		c20.2133789,66.1132813,75.2744141,111.9599609,138.8769531,123.5634766
		C250.6933594,407.1953125,279.4365234,405.9082031,307.6806641,397.2714844z"/>
</g>
<g>
</g>
<g>
</g>
<g>
</g>
<g>
</g>
<g>
</g>
<g>
</g>
<g>
</g>
<g>
</g>
<g>
</g>
<g>
</g>
<g>
</g>
<g>
</g>
<g>
</g>
<g>
</g>
<g>
</g>
</svg>
